<svg xmlns="http://www.w3.org/2000/svg" class="icon icon-tabler icon-tabler-corner-down-left" width="44" height="44" viewBox="0 0 24 24" stroke-width="1.5" stroke="#fff" fill="none" stroke-linecap="round" stroke-linejoin="round">
  <path stroke="none" d="M0 0h24v24H0z" fill="none"/>
  <path d="M18 6v6a3 3 0 0 1 -3 3h-10l4 -4m0 8l-4 -4" />
</svg>